<svg width="480" height="480" xmlns="http://www.w3.org/2000/svg">
 <!-- Created with SVG-edit - http://svg-edit.googlecode.com/ -->
 <g>
  <title>Layer 1</title>
  <ellipse ry="1" id="svg_1" cy="271" cx="198" stroke-width="8" stroke="#000000" fill="#FF0000"/>
  <ellipse transform="translate(26,9) " ry="234" rx="234" id="svg_2" cy="230" cx="214" stroke-width="8" stroke="#000000" fill="#ffffff"/>
  <text xml:space="preserve" text-anchor="middle" font-family="Sans-serif" font-size="24" id="svg_4" y="175" x="357" stroke-linecap="null" stroke-linejoin="null" stroke-width="0" stroke="#000000" fill="#000000"/>
  <text transform="matrix(3.6244874000549316,0,0,3.6244874000549316,-238.78734578937292,-545.8933792114258) " xml:space="preserve" text-anchor="middle" font-family="Sans-serif" font-size="24" id="svg_5" y="209.069824" x="132.931308" stroke-linecap="null" stroke-linejoin="null" stroke-width="0" stroke="#000000" fill="#000000">RESET</text>
  <text transform="matrix(3.8095238208770748,0,0,3.8095238208770748,-183.23809599876404,-721.5238125324248) " xml:space="preserve" text-anchor="middle" font-family="Sans-serif" font-size="24" id="svg_6" y="270.5" x="111.625" stroke-linecap="null" stroke-linejoin="null" stroke-width="0" stroke="#000000" fill="#000000">FRAME</text>
 </g>
</svg>